{
    "productName": "Open Biking",
    "version": "1.0.0",
    "identifier": "io.gitlab",
    "build": {
        "beforeDevCommand": "npm run dev",
        "beforeBuildCommand": "npm run build",
        "devUrl": "http://localhost:1420",
        "frontendDist": "frontend/build"
    },
    "app": {
        "security": {
            "csp": null
        },
        "windows": [
            {
                "fullscreen": false,
                "resizable": true,
                "title": "Open Biking",
                "width": 800,
                "height": 600
            }
        ]
    },
    "bundle": {
        "active": true,
        "targets": "all",
        "icon": [
            "icons/32x32.png",
            "icons/128x128.png",
            "icons/128x128@2x.png",
            "icons/icon.icns",
            "icons/icon.ico"
        ]
    },
    "plugins": {
        "shell": {
            "open": true
        }
    }
}
